test1,test2,test3,test4,test5,test6
2017-05-08,9005,4568.58,Meriel,true,a2cf84ab-619b-480c-9009-74a02fdfbe8f
1975-06-25,1212,508.69,Kalina,false,86f519ae-6cfc-4f80-bc27-7001b70a23e5
1947-03-31,9520,2895.51,Bee,true,63b9c9be-d279-407f-b347-39f25863e5b8
2002-03-22,290,5385.45,Collen,false,1ea0f927-6a2e-4d83-bca9-29fc40078253
1967-07-16,3389,8759.13,Sindee,false,0c5f3667-defe-4480-9928-c16c406b02a6
1962-09-05,8259,6623.7,Fina,false,5598ea98-b795-4286-9f14-ccf1f7ceccd3
1991-03-23,5741,6073.09,Letizia,true,791f0fc0-3b7b-4637-acc1-0aa75ef6b981
1948-02-16,1673,8463.55,Anestassia,false,74cf8f73-666e-4477-b404-1f2666b4cdcd
1916-12-30,3091,7406.28,Susette,false,3b3f30a8-d904-4add-a0b3-2621c85ef220
1985-03-25,9093,8285.27,Thalia,true,2e81bcec-6b6c-4fda-b668-eb6f7b9af667
